
{"photos":{"page":1,"pages":1677,"perpage":100,"total":"167623","photo":[{"id":"48835659482","owner":"184516956@N08","secret":"3a3301a41e","server":"65535","farm":66,"title":"Kitten.","ispublic":1,"isfriend":0,"isfamily":0},{"id":"48835475216","owner":"184516956@N08","secret":"356a86fdd6","server":"65535","farm":66,"title":"Grooving with the Kitten.","ispublic":1,"isfriend":0,"isfamily":0},{"id":"48835335987","owner":"32987428@N00","secret":"b587b203e6","server":"65535","farm":66,"title":"Curiosity","ispublic":1,"isfriend":0,"isfamily":0},{"id":"48835081796","owner":"52742772@N02","secret":"6e191fd025","server":"65535","farm":66,"title":"2019.09.26 \u5b50\u732b","ispublic":1,"isfriend":0,"isfamily":0},{"id":"48834708488","owner":"52742772@N02","secret":"68237ab51f","server":"65535","farm":66,"title":"2019.09.26 \u5b50\u732b","ispublic":1,"isfriend":0,"isfamily":0},{"id":"48835077186","owner":"52742772@N02","secret":"bd3bd4ab0d","server":"65535","farm":66,"title":"2019.09.26 \u5b50\u732b","ispublic":1,"isfriend":0,"isfamily":0},{"id":"48835074781","owner":"52742772@N02","secret":"dd9ac03afa","server":"65535","farm":66,"title":"2019.09.26 \u5b50\u732b","ispublic":1,"isfriend":0,"isfamily":0},{"id":"48834702803","owner":"52742772@N02","secret":"2d0fc5fe2f","server":"65535","farm":66,"title":"2019.09.26 \u5b50\u732b","ispublic":1,"isfriend":0,"isfamily":0},{"id":"48835072536","owner":"52742772@N02","secret":"243da8c0a2","server":"65535","farm":66,"title":"2019.09.26 \u5b50\u732b","ispublic":1,"isfriend":0,"isfamily":0},{"id":"48835071031","owner":"52742772@N02","secret":"6a392f3a31","server":"65535","farm":66,"title":"2019.09.26 \u5b50\u732b","ispublic":1,"isfriend":0,"isfamily":0},{"id":"48835002986","owner":"111848558@N06","secret":"c138687458","server":"65535","farm":66,"title":"Helen.  A tiny black kitten.","ispublic":1,"isfriend":0,"isfamily":0},{"id":"48834612448","owner":"145837611@N07","secret":"32d45a0e7d","server":"65535","farm":66,"title":"Hungry Kitten (ft. pre-war subway cars)","ispublic":1,"isfriend":0,"isfamily":0},{"id":"48834931812","owner":"184500543@N06","secret":"5639a64b72","server":"65535","farm":66,"title":"Reposted from @cheezburger - Cat Logic . . . . . . . .   #cats #funny #funnycats #lolcats #hilarious #laughing #lol #CatsofInstagram #hilariouscats #catmemes #memes #funnycatsmemes #funnymemes #meme #catmeme #kittens #kitten","ispublic":1,"isfriend":0,"isfamily":0},{"id":"48834390943","owner":"184500543@N06","secret":"987784e542","server":"65535","farm":66,"title":"Reposted from @sad_nibba_cats - I have Christmas songs stuck in my head it\u2019s barely October hh ^ ^ ^ ^ ^ #cat #cats #catsofinstagram #kitty #kitties #catmemes #kittens #kitten #catto #chonk #chonky #chonkycat #meow #relateable #demoncat #sadcat","ispublic":1,"isfriend":0,"isfamily":0},{"id":"48834390878","owner":"184500543@N06","secret":"86f607e626","server":"65535","farm":66,"title":"Reposted from @cats_jankie - You can't see me,can you? \ud83d\ude3b\ud83d\ude05\u270b #catsofinsta #animalshots#photooftheday\ud83d\udcf7 #catsagramcat #instacatsgram #catsoftheworldworld #kittycat #kittens #petsmart #animalshelter #catmemes #catofyou #i","ispublic":1,"isfriend":0,"isfamily":0},{"id":"48834390508","owner":"184500543@N06","secret":"85e7a0903a","server":"65535","farm":66,"title":"Reposted from @meowmania3 \ud83d\udc93 . . . #meowmania #cats #catlove #catlover #catlovers #meowing #memes #catmemes #catmemes #whiskerswednesday #whiskersonfleek #wiskersonkittens #wiskers #kitty #kittycat #kittys #kittycat #kittens #kitten #kittenplay #","ispublic":1,"isfriend":0,"isfamily":0},{"id":"48834834147","owner":"49998540@N03","secret":"4df896b549","server":"65535","farm":66,"title":"\u3078\u3093\u306a\u304b\u3063\u3053\u3075\u3068\u3093\u306d\u308b\u306d\u3053 #\u306d\u3053 #\u732b #cat #gatto #chat #kitten","ispublic":1,"isfriend":0,"isfamily":0},{"id":"48834733782","owner":"62830439@N08","secret":"be9fb1ded5","server":"65535","farm":66,"title":"Rainbow Kitten Surprise  AA3A9104-1","ispublic":1,"isfriend":0,"isfamily":0},{"id":"48834733837","owner":"62830439@N08","secret":"8ea0537e1f","server":"65535","farm":66,"title":"Rainbow Kitten Surprise  AA3A9093-1","ispublic":1,"isfriend":0,"isfamily":0},{"id":"48834733757","owner":"62830439@N08","secret":"c42f7e74d3","server":"65535","farm":66,"title":"Rainbow Kitten Surprise  AA3A9107-1","ispublic":1,"isfriend":0,"isfamily":0},{"id":"48834562111","owner":"62830439@N08","secret":"6dcea539e3","server":"65535","farm":66,"title":"Rainbow Kitten Surprise  AA3A9112-1","ispublic":1,"isfriend":0,"isfamily":0},{"id":"48834193013","owner":"62830439@N08","secret":"c4fdfc4fbb","server":"65535","farm":66,"title":"Rainbow Kitten Surprise  AA3A9118-1","ispublic":1,"isfriend":0,"isfamily":0},{"id":"48834733587","owner":"62830439@N08","secret":"4ab6d3e01b","server":"65535","farm":66,"title":"Rainbow Kitten Surprise  AA3A9120-1","ispublic":1,"isfriend":0,"isfamily":0},{"id":"48834733547","owner":"62830439@N08","secret":"12d714927e","server":"65535","farm":66,"title":"Rainbow Kitten Surprise  AA3A9135-1","ispublic":1,"isfriend":0,"isfamily":0},{"id":"48834561956","owner":"62830439@N08","secret":"e3517abc27","server":"65535","farm":66,"title":"Rainbow Kitten Surprise  AA3A9143-1","ispublic":1,"isfriend":0,"isfamily":0},{"id":"48834733522","owner":"62830439@N08","secret":"2a5cde64bc","server":"65535","farm":66,"title":"Rainbow Kitten Surprise  AA3A9137-1","ispublic":1,"isfriend":0,"isfamily":0},{"id":"48834733437","owner":"62830439@N08","secret":"91b0075ec8","server":"65535","farm":66,"title":"Rainbow Kitten Surprise  AA3A9144-1","ispublic":1,"isfriend":0,"isfamily":0},{"id":"48834561906","owner":"62830439@N08","secret":"e411992cbe","server":"65535","farm":66,"title":"Rainbow Kitten Surprise  AA3A9145-1","ispublic":1,"isfriend":0,"isfamily":0},{"id":"48834561851","owner":"62830439@N08","secret":"ae9165ac1c","server":"65535","farm":66,"title":"Rainbow Kitten Surprise  AA3A9147-1","ispublic":1,"isfriend":0,"isfamily":0},{"id":"48834561816","owner":"62830439@N08","secret":"d038532710","server":"65535","farm":66,"title":"Rainbow Kitten Surprise  AA3A9194-1","ispublic":1,"isfriend":0,"isfamily":0},{"id":"48834561776","owner":"62830439@N08","secret":"aa54abccff","server":"65535","farm":66,"title":"Rainbow Kitten Surprise  AA3A9197-1","ispublic":1,"isfriend":0,"isfamily":0},{"id":"48834192583","owner":"62830439@N08","secret":"813834cd87","server":"65535","farm":66,"title":"Rainbow Kitten Surprise  AA3A9198-1","ispublic":1,"isfriend":0,"isfamily":0},{"id":"48834731522","owner":"62830439@N08","secret":"db38c24014","server":"65535","farm":66,"title":"Rainbow Kitten Surprise  AA3A9122-1","ispublic":1,"isfriend":0,"isfamily":0},{"id":"48834731467","owner":"62830439@N08","secret":"a59926c24a","server":"65535","farm":66,"title":"Rainbow Kitten Surprise  AA3A9164-1","ispublic":1,"isfriend":0,"isfamily":0},{"id":"48833980368","owner":"183844101@N08","secret":"95d0bc0e4b","server":"0","farm":0,"title":"Toni Manero Alfresco Strutting In Her Black Sequinned Full Circle Midi Skirt.","ispublic":1,"isfriend":0,"isfamily":0},{"id":"48833725276","owner":"167873114@N05","secret":"e52fb7a559","server":"65535","farm":66,"title":"2017-04-17 1727 001 Amissville colony kitten","ispublic":1,"isfriend":0,"isfamily":0},{"id":"48833297778","owner":"167873114@N05","secret":"b04a271918","server":"65535","farm":66,"title":"2017-04-25 0956 001 Midnight and kittens","ispublic":1,"isfriend":0,"isfamily":0},{"id":"48833653466","owner":"167873114@N05","secret":"2f2c74b892","server":"65535","farm":66,"title":"2019-09-29 2010 Black Cat colony kitten","ispublic":1,"isfriend":0,"isfamily":0},{"id":"48833058643","owner":"167692624@N04","secret":"5f1829855c","server":"65535","farm":66,"title":"\ud83c\udf83 post#217\ud83c\udf83","ispublic":1,"isfriend":0,"isfamily":0},{"id":"48833404221","owner":"19872565@N00","secret":"88e2eb056d","server":"65535","farm":66,"title":"20161031_1724c","ispublic":1,"isfriend":0,"isfamily":0},{"id":"48833116617","owner":"63008868@N08","secret":"0e1135c3c1","server":"65535","farm":66,"title":"IMG_4560","ispublic":1,"isfriend":0,"isfamily":0},{"id":"48832945601","owner":"63008868@N08","secret":"371260e1ac","server":"65535","farm":66,"title":"IMG_4564","ispublic":1,"isfriend":0,"isfamily":0},{"id":"48832945581","owner":"63008868@N08","secret":"089268107c","server":"65535","farm":66,"title":"IMG_4565","ispublic":1,"isfriend":0,"isfamily":0},{"id":"48832579188","owner":"63008868@N08","secret":"340f14d574","server":"65535","farm":66,"title":"IMG_4569","ispublic":1,"isfriend":0,"isfamily":0},{"id":"48832945356","owner":"63008868@N08","secret":"0b6e92eac8","server":"65535","farm":66,"title":"IMG_4577","ispublic":1,"isfriend":0,"isfamily":0},{"id":"48832945276","owner":"63008868@N08","secret":"f10d8a3d2b","server":"65535","farm":66,"title":"IMG_4580","ispublic":1,"isfriend":0,"isfamily":0},{"id":"48833116152","owner":"63008868@N08","secret":"e319a27749","server":"65535","farm":66,"title":"IMG_4572","ispublic":1,"isfriend":0,"isfamily":0},{"id":"48833116047","owner":"63008868@N08","secret":"6ef72c7934","server":"65535","farm":66,"title":"IMG_4581","ispublic":1,"isfriend":0,"isfamily":0},{"id":"48832578873","owner":"63008868@N08","secret":"1e0f3aa055","server":"65535","farm":66,"title":"IMG_4579","ispublic":1,"isfriend":0,"isfamily":0},{"id":"48832551348","owner":"182425820@N08","secret":"4b89566e2a","server":"65535","farm":66,"title":"Prismatic. Kitty Omega Mod - Jinx","ispublic":1,"isfriend":0,"isfamily":0},{"id":"48832729216","owner":"30127322@N00","secret":"792bc7ddac","server":"65535","farm":66,"title":"mugi","ispublic":1,"isfriend":0,"isfamily":0},{"id":"48832522912","owner":"167692624@N04","secret":"3426067d07","server":"65535","farm":66,"title":"\ud83c\udf83 post#216\ud83c\udf83","ispublic":1,"isfriend":0,"isfamily":0},{"id":"48832340662","owner":"79053826@N07","secret":"8bd8a5df29","server":"65535","farm":66,"title":"kitten","ispublic":1,"isfriend":0,"isfamily":0},{"id":"48831904686","owner":"52423690@N04","secret":"e9a30cf6fe","server":"65535","farm":66,"title":"Hercules","ispublic":1,"isfriend":0,"isfamily":0},{"id":"48831880837","owner":"50666199@N02","secret":"45d70a8e81","server":"65535","farm":66,"title":"Fostering a Newborn Piglet!","ispublic":1,"isfriend":0,"isfamily":0},{"id":"48831623571","owner":"159969404@N08","secret":"b4c2204d61","server":"65535","farm":66,"title":"SHOPBOP 25% OFF \/\/ SALE ALERT","ispublic":1,"isfriend":0,"isfamily":0},{"id":"48831687372","owner":"136845431@N07","secret":"1591705d29","server":"65535","farm":66,"title":"Inquisitive","ispublic":1,"isfriend":0,"isfamily":0},{"id":"48831458476","owner":"141640835@N02","secret":"30dbef2f0c","server":"65535","farm":66,"title":"So cute ... Cats are so cute \ud83d\ude0d\ud83d\ude0d\ud83d\ude0d \ud83d\udc25 \ud83d\udec1 #lazacat #lazabeecom #lazabee #cats #cat #catstagram #instacat #catlover #meow #kitten #bath #bathtime #catlovers #kittens #CatsOfTwitter #cute #animals #pet #gato","ispublic":1,"isfriend":0,"isfamily":0},{"id":"48831343951","owner":"48436927@N05","secret":"1bab4386d9","server":"65535","farm":66,"title":"CraftingCatHalloweenButterfly","ispublic":1,"isfriend":0,"isfamily":0},{"id":"48831160331","owner":"32126266@N00","secret":"bdffde3f55","server":"65535","farm":66,"title":"happy as a kitten up a tree","ispublic":1,"isfriend":0,"isfamily":0},{"id":"48830783508","owner":"80780290@N05","secret":"975d3d8426","server":"65535","farm":66,"title":"Rendez-vous : Candy Kitten, Masoom.","ispublic":1,"isfriend":0,"isfamily":0},{"id":"48830870861","owner":"184749767@N05","secret":"79d6fec821","server":"65535","farm":66,"title":"Kitten masturbates and cums with tail butt plug","ispublic":1,"isfriend":0,"isfamily":0},{"id":"48830966477","owner":"60327746@N07","secret":"89a0c3f906","server":"65535","farm":66,"title":"NATAS KITTEN SANTA MONICA AIRLINES DECK","ispublic":1,"isfriend":0,"isfamily":0},{"id":"48830760516","owner":"160941634@N08","secret":"5402fbdcb0","server":"65535","farm":66,"title":"Kitten","ispublic":1,"isfriend":0,"isfamily":0},{"id":"48830889932","owner":"27978006@N04","secret":"caaea45ccc","server":"65535","farm":66,"title":"Un'adorabile micetta...\/A lovely kitten...","ispublic":1,"isfriend":0,"isfamily":0},{"id":"48830819732","owner":"14191740@N08","secret":"fd7cda8469","server":"65535","farm":66,"title":"71.005 Sallow Kitten (Furcula furcula), Cullaloe, Fife","ispublic":1,"isfriend":0,"isfamily":0},{"id":"48830076778","owner":"155475683@N05","secret":"d7941c10f1","server":"65535","farm":66,"title":"Lucca at the Window","ispublic":1,"isfriend":0,"isfamily":0},{"id":"48829638161","owner":"184500543@N06","secret":"1115f287d6","server":"65535","farm":66,"title":"Reposted from @a.cats.armpit - Oh nose - - #cats #kitty #cat #kitten #catmeme #catmemes #memecat #memecats #meow #rip #meme #memes #aesthetic #funny #sad #why #no #nose","ispublic":1,"isfriend":0,"isfamily":0},{"id":"48829803982","owner":"184500543@N06","secret":"a80d8495fd","server":"65535","farm":66,"title":"Reposted from @t.yamaya - Wait a little more before you go out. Are you working too much? #bestmeow#cat_features #catlife #catlovers #catmeme#catmemes #catsofig #catsofworld #caturday#catlady #crazycatlady #cutekitten #cutest#cutekitten #excellent_kittens","ispublic":1,"isfriend":0,"isfamily":0},{"id":"48829262793","owner":"184500543@N06","secret":"d41729d402","server":"65535","farm":66,"title":"Reposted from @tiddiecats - i have to post sm to get rid of all my cat memes this isn\u2019t fair \u2661 \u2661 \u2661 \u2661 \u2661 \u2661 \u2661 tags \u2661 \u2661 \u2661 \u2661 \u2661 \u2661 \u2661 \u2661 #cat #cats #kittens #kitties #catto #cattos #catmeme #catmemes #funnycats #memes #toilet #funnycat #meme #funnycatmemes #catsof","ispublic":1,"isfriend":0,"isfamily":0},{"id":"48829184703","owner":"49998540@N03","secret":"07b86d97d0","server":"65535","farm":66,"title":"\u306b\u3089\u307f\u304d\u304b\u3057\u3073\u3073\u308a\u306d\u3053 #\u306d\u3053 #\u732b #cat #gatto #chat #kitten","ispublic":1,"isfriend":0,"isfamily":0},{"id":"48829669297","owner":"85987121@N00","secret":"621f0bda23","server":"65535","farm":66,"title":"Extended Claws","ispublic":1,"isfriend":0,"isfamily":0},{"id":"48829128418","owner":"85987121@N00","secret":"f1da96d56b","server":"65535","farm":66,"title":"Standing Cat","ispublic":1,"isfriend":0,"isfamily":0},{"id":"48829502876","owner":"85987121@N00","secret":"b1e393849c","server":"65535","farm":66,"title":"Play","ispublic":1,"isfriend":0,"isfamily":0},{"id":"48829502696","owner":"85987121@N00","secret":"785450cdab","server":"65535","farm":66,"title":"Reach","ispublic":1,"isfriend":0,"isfamily":0},{"id":"48829127773","owner":"85987121@N00","secret":"8458b0920f","server":"65535","farm":66,"title":"Jump","ispublic":1,"isfriend":0,"isfamily":0},{"id":"48829398487","owner":"184635055@N02","secret":"f274269f12","server":"65535","farm":66,"title":"A kitten\u2019s Saturday","ispublic":1,"isfriend":0,"isfamily":0},{"id":"48829011616","owner":"170021627@N08","secret":"3e8f158bf8","server":"65535","farm":66,"title":"Our Best Friends","ispublic":1,"isfriend":0,"isfamily":0},{"id":"48828436098","owner":"184807245@N08","secret":"b7891eb547","server":"0","farm":0,"title":"Karolina Kulik","ispublic":1,"isfriend":0,"isfamily":0},{"id":"48828177427","owner":"125208863@N02","secret":"c0fa9993a0","server":"65535","farm":66,"title":"365\/274   - Past \/ Present :-)","ispublic":1,"isfriend":0,"isfamily":0},{"id":"48828716267","owner":"38334836@N08","secret":"259e6950f6","server":"0","farm":0,"title":"Bobcats Mom and kittens","ispublic":1,"isfriend":0,"isfamily":0},{"id":"48828142493","owner":"37798228@N04","secret":"52e5e51089","server":"65535","farm":66,"title":"Passport photo","ispublic":1,"isfriend":0,"isfamily":0},{"id":"48819801351","owner":"183807253@N05","secret":"8fa45944bb","server":"65535","farm":66,"title":"How much do I love my Hudson Bay wooly blanket?","ispublic":1,"isfriend":0,"isfamily":0},{"id":"48828510222","owner":"35152132@N02","secret":"d09b3efc19","server":"65535","farm":66,"title":"Tender Presence","ispublic":1,"isfriend":0,"isfamily":0},{"id":"48827950978","owner":"184572954@N08","secret":"d08b6e3df5","server":"65535","farm":66,"title":"Dark mackerel tabby kitten","ispublic":1,"isfriend":0,"isfamily":0},{"id":"48827850478","owner":"132621748@N03","secret":"d2a284b1e2","server":"65535","farm":66,"title":"Toto","ispublic":1,"isfriend":0,"isfamily":0},{"id":"48815788193","owner":"50866194@N03","secret":"1391bee7b9","server":"65535","farm":66,"title":"Fortezza Companion, Crete, Greece","ispublic":1,"isfriend":0,"isfamily":0},{"id":"48827907932","owner":"151819983@N05","secret":"d1f8cffd45","server":"65535","farm":66,"title":"dim448_elena_kitten-1","ispublic":1,"isfriend":0,"isfamily":0},{"id":"48827907877","owner":"151819983@N05","secret":"2fa6aabaef","server":"65535","farm":66,"title":"dim448_elena_kitten-3","ispublic":1,"isfriend":0,"isfamily":0},{"id":"48827751106","owner":"151819983@N05","secret":"32ae6f0f45","server":"65535","farm":66,"title":"dim448_elena_kitten-4","ispublic":1,"isfriend":0,"isfamily":0},{"id":"48827644747","owner":"96551325@N08","secret":"379e570612","server":"65535","farm":66,"title":"Hilary","ispublic":1,"isfriend":0,"isfamily":0},{"id":"48827419307","owner":"26652380@N06","secret":"d9c06b5c60","server":"65535","farm":66,"title":"Mr Kitten","ispublic":1,"isfriend":0,"isfamily":0},{"id":"48826876893","owner":"162747342@N07","secret":"edcf39e11c","server":"65535","farm":66,"title":"Blog: Extra Credit","ispublic":1,"isfriend":0,"isfamily":0},{"id":"48827190632","owner":"30127322@N00","secret":"da9bd6cff7","server":"65535","farm":66,"title":"122\/365","ispublic":1,"isfriend":0,"isfamily":0},{"id":"48827190402","owner":"30127322@N00","secret":"6f6493dec1","server":"65535","farm":66,"title":"mugi","ispublic":1,"isfriend":0,"isfamily":0},{"id":"48827032761","owner":"30127322@N00","secret":"8e6744ae89","server":"65535","farm":66,"title":"mugi in the kitchen","ispublic":1,"isfriend":0,"isfamily":0},{"id":"48826658353","owner":"30127322@N00","secret":"5d05f16a67","server":"65535","farm":66,"title":"mugi in the kitchen","ispublic":1,"isfriend":0,"isfamily":0},{"id":"48827073932","owner":"78517182@N07","secret":"313d7aaa49","server":"65535","farm":66,"title":"Sleeping kitten, stalking kitten","ispublic":1,"isfriend":0,"isfamily":0},{"id":"48826815291","owner":"165578765@N07","secret":"61f50ca9e8","server":"65535","farm":66,"title":"Look729","ispublic":1,"isfriend":0,"isfamily":0},{"id":"48826071708","owner":"184718053@N05","secret":"d412113382","server":"65535","farm":66,"title":"Bengal","ispublic":1,"isfriend":0,"isfamily":0}]},"stat":"ok"}
